{
  "type": "service_account",
  "project_id": "slegal-lawyer",
  "private_key_id": "f2b3f93cda23e485b5c85c3c7b9e072e7c3a66f1",
  "private_key": "-----BEGIN PRIVATE KEY-----\nMIIEvgIBADANBgkqhkiG9w0BAQEFAASCBKgwggSkAgEAAoIBAQCvCXZZHQS3Hre/\nXQb3+EosWHOIyMjwkd9r3e3lXN7XAtGX+Czv9x3DI/1JSmQag0FjD3eMUVy17any\nEMTd862rsfZE4MwFLPmunzZi8w9EsXnr7ahI7nZ3kzTCQQAfpkLPez+VBgt7dL6T\ntZLU1UYBHbvZDhYohwwcTtNlcwwaVXy//O36sM/QK5Ks4/SNOeOPnxRNncBLL+kt\niYyqs4JFcdvYu8giEJLH3YBhgXDbKZNapIYxeTk9WwpWomcA5m/CxDg003Jpvwpg\nNShBR0SFYb8+OvpvvNeOhEYN8xYLeIaueDSL+t9t5iPhD7RMcPr0vcoqDeP+J4xT\nlnPRsJwTAgMBAAECggEADW9+AJgcIQxAEXXMD6Ok2eOONr0mw2SHEEoQNS9cQYfL\nW81mcaL3y19LVWFa7rgNgFOTGxextJtCFL0Zx2mpdojp/N5+epU5syAwdgbvMJgo\n4iWzaam4OTR488I2hrdl4HQ27LLyla7f5AmndCPMxFAqd54/sCuxj8izLFHY53pw\nxMPmm9fKa9iVVej7PddWCIS1Ic1hzj0im7ptmqd8nm0UqD+2SIQ43MmSzusgZDXq\ntaZ25g6QVUoWBlG1NeihxJeF00fZusWh9PpY2kkMHcLblUqqAmhLr3U+BR8lSweI\nVq40gkQXpB5mPtoLlA8isaeTD4zyOV7WEaDN8GH77QKBgQDmPZEn+wogyzrkhnQd\nnqtPfGptORKdmLgmmpqoWiqExsjY3xEdJuxJN6yYoN75XyYm6q1lqUQO40znijKP\nKSN5S+ucZwMaDkxl3fcbcGGD8199/miEqZuZk4Kcy0BzLtuSaCeEwNnRFci//elR\nbOseBhYxNQZ2V0kJj2ChXEe15wKBgQDCnsiGrfp8P/9NQbkWX+9Z8OtWrJnPyrg+\ns1kU2+rCuMQUpIJ2p6g5iFT0p0T+BPEH89Y5d4SPC1VJ/QZL8QLE7/LSKf3J/MZY\nJLEeuO7+Yq7NzHfjATj6NUdbBlWWxD7xQudCYeJj535+kOxMoQuJe+kU12ky27cG\nCbTWzNeK9QKBgQDTuexBcubGb32R517iWiY5azVHicNnr6gwv93XUUtmXJMYdFF9\nmGyTjCIpHU7OzcP857RbF4QhmL8A8aI66l7XzYw2gLhmfp2c07jIv9i9CdJXv9uH\nm50eZnsnCvYSthVvFl65AsuLLdg1Th8AJQQ10O0ZhSSTMQNWSkZXPNApIwKBgEvW\nmAlzTkKQpamzTK6dX6XKrcoupBlGw5kbRkFMmSSb3zy0Bmq6VmFk8MYNUGM0BcC1\nker+2dbr8aZNRODe39diMVsYJd9J8vhyA9sW8XqLddaYMLdyyIMns9CSnVOM0YIu\nMfO6NP/9O1uSmaIat2YxtNf8QPAikiV2LtPtKqjpAoGBAMq6g3s5rbFz7V/RmoNj\nzRFNd6mI1vfR7x+WNNn2brw4X/e8lDkaXawG8mjXkqpBeORphuQWL2QSIyC+qFgw\n1Y7025AZe/RYuSj3o/yBcVCTlS6USVkRUo1CotZ7AOhv9ZNYviYTl6fG7a9xveqX\nwrDaHRonJbTNIM4pb9Nd2jsd\n-----END PRIVATE KEY-----\n",
  "client_email": "firebase-adminsdk-luyc4@slegal-lawyer.iam.gserviceaccount.com",
  "client_id": "105818265202639385031",
  "auth_uri": "https://accounts.google.com/o/oauth2/auth",
  "token_uri": "https://oauth2.googleapis.com/token",
  "auth_provider_x509_cert_url": "https://www.googleapis.com/oauth2/v1/certs",
  "client_x509_cert_url": "https://www.googleapis.com/robot/v1/metadata/x509/firebase-adminsdk-luyc4%40slegal-lawyer.iam.gserviceaccount.com"
}
